<?xml version="1.0" encoding="utf-8"?>
<!-- Generator: Adobe Illustrator 18.1.1, SVG Export Plug-In . SVG Version: 6.00 Build 0)  -->
<!DOCTYPE svg PUBLIC "-//W3C//DTD SVG 1.1//EN" "http://www.w3.org/Graphics/SVG/1.1/DTD/svg11.dtd">
<svg version="1.1" id="Ebene_1" xmlns="http://www.w3.org/2000/svg" xmlns:xlink="http://www.w3.org/1999/xlink" x="0px" y="0px"
	 viewBox="0 0 213 223.5" enable-background="new 0 0 213 223.5" xml:space="preserve">
<g>
	<path fill="#000000" d="M95.5,188c0.9,4.4-1.8,8.7-6.2,9.7c-4.4,0.9-8.7-1.8-9.7-6.2c-1-4.4,1.8-8.7,6.2-9.7
		C90.2,180.9,94.5,183.6,95.5,188z"/>
	<circle fill="#000000" cx="41.8" cy="162.5" r="8.1"/>
	<circle fill="#000000" cx="62.7" cy="179.7" r="8.1"/>
	<path fill="#000000" d="M35.2,138.3c1,4.4-1.8,8.7-6.2,9.7c-4.4,1-8.7-1.8-9.7-6.2c-1-4.4,1.8-8.7,6.2-9.7
		C30,131.1,34.3,133.9,35.2,138.3z"/>
	<circle fill="#000000" cx="21.1" cy="87.3" r="8.1"/>
	<circle fill="#000000" cx="30.1" cy="62.2" r="8.1"/>
	<path fill="#000000" d="M54.1,39.1c1,4.4-1.8,8.7-6.2,9.7c-4.4,1-8.7-1.8-9.7-6.2c-1-4.4,1.8-8.7,6.2-9.7
		C48.8,31.9,53.2,34.7,54.1,39.1z"/>
</g>
<path fill="#000000" d="M155.8,166.6c-4.4,0.9-7.2,5.3-6.2,9.7c0.9,4.4,5.3,7.2,9.7,6.2c4.4-1,7.2-5.3,6.2-9.7
	C164.6,168.4,160.2,165.7,155.8,166.6z"/>
<path fill="#000000" d="M186.2,122.9c-4.4,0.9-7.2,5.3-6.2,9.7c0.9,4.4,5.3,7.2,9.7,6.2c4.4-1,7.2-5.3,6.2-9.7
	C194.9,124.8,190.6,122,186.2,122.9z"/>
<path fill="#000000" d="M174.3,147.2c-4.4,0.9-7.2,5.3-6.2,9.7c0.9,4.4,5.3,7.2,9.7,6.2c4.4-1,7.2-5.3,6.2-9.7
	C183,149.1,178.7,146.3,174.3,147.2z"/>
<path fill="#000000" d="M190.1,96.4c-4.4,0.9-7.2,5.3-6.2,9.7c0.9,4.4,5.3,7.2,9.7,6.2c4.4-1,7.2-5.3,6.2-9.7
	C198.8,98.2,194.5,95.4,190.1,96.4z"/>
<path fill="#000000" d="M17.4,101.5c-7,1.5-11.5,8.4-9.9,15.5c1.5,7,8.4,11.5,15.5,9.9c0.7-0.1,47.3-10.4,47.3-10.4l-5.5-25.1
	C64.7,91.4,17.9,101.4,17.4,101.5z"/>
<path fill="#000000" d="M190.3,90.6c7-1.5,11.5-8.4,9.9-15.5c-1.5-7-8.4-11.5-15.5-9.9c-0.5,0.1-47,10.3-47,10.3l5.5,25.1
	C143.3,100.7,189.6,90.8,190.3,90.6z"/>
<path fill="#000000" d="M177.3,61.8c4.4-1,7.2-5.3,6.2-9.7c-1-4.4-5.3-7.2-9.7-6.2c-4.4,0.9-7.2,5.3-6.2,9.7
	C168.6,59.9,172.9,62.7,177.3,61.8z"/>
<path fill="#000000" d="M158.8,42.6c4.4-0.9,7.2-5.3,6.2-9.7c-1-4.4-5.3-7.2-9.7-6.2c-4.4,1-7.2,5.3-6.2,9.7
	C150.1,40.8,154.4,43.6,158.8,42.6z"/>
<circle fill="#000000" cx="133.5" cy="21.9" r="8.1"/>
<g>
	<path fill="#000000" d="M148.8,202.4c0,0-3.3-15.5-4-20c-0.8-4.6-4.9-4.9-7.2-5.6c-2.3-0.7-2.6-1.8-2.6-1.8l-2.9-17.8
		c0,0-0.3-1.1,0.6-1.5c0,0,4.2-1.9,3.4-5.8c-0.5-2.3-4.2-3.9-4.2-3.9s-0.8-0.2-0.9-0.7c-0.1-0.7,0.6-1,0.6-1s3.9-2.6,3.4-5.6
		c-0.5-3-4.2-4.1-4.2-4.1s-0.5-0.1-0.7-0.9c-0.1-0.6,0.6-1.1,0.6-1.1s3.5-2.3,2.9-5.3c-0.5-3.1-3.9-3.7-3.9-3.7s-0.6-0.2-0.7-0.6
		c-0.1-0.2,0.3-0.8,0.3-0.8s7.1-11.1,8.2-14.3c0.2-0.5,0.1-1.1,0.1-1.1l-1.1-5.2l-6-27.3c0,0-0.2-1.1-1.4-1.8
		c-5.3-3.2-16.1-10.6-17.7-11.5c-1.1-0.6-1.4-1.2-1.4-1.2s-0.7-1.9-1-3.3c-0.2-0.8,0.3-1.2,0.3-1.2c6.1-7.7,6.8-12,5.3-18
		c-1.5-6-3.9-8.3-5-9.4c-1.4-1.5-0.2-1.6-0.2-1.6l2-0.3c2.4-0.5,1.4-2,1.4-2c-4.7-7.6-17.4-10.2-25.9-8.5c0,0-0.1,0-0.1,0
		c0,0-0.1,0-0.1,0c-8.5,1.8-19.1,9.2-20.4,18c0,0-0.3,1.8,2.1,1.3l1.9-0.6c0,0,1.2-0.4,0.5,1.5c-0.5,1.5-1.8,4.5-0.8,10.6
		c1,6.1,3.4,9.7,12,14.4c0,0,0.6,0.2,0.8,1c0.3,1.4,0.4,3.4,0.4,3.4s-0.1,0.6-0.8,1.7c-1.2,1.7-8.2,12.3-11.5,16.9
		C70.5,85,70.8,86,70.8,86s2.5,10.6,5.9,28.1l1.1,5.2c0,0,0.1,0.6,0.5,1c2.3,2.5,12.6,9.9,12.6,9.9s0.5,0.3,0.6,0.6
		c0.1,0.4-0.4,0.8-0.4,0.8s-2.8,1.9-2.1,4.9c0.8,3,4.8,3.7,4.8,3.7s0.8,0.2,1,0.7c0.2,0.7-0.3,1.1-0.3,1.1s-2.9,2.5-2.2,5.4
		c0.7,2.9,5.3,3.8,5.3,3.8s0.8,0,1,0.7c0.1,0.4-0.5,0.9-0.5,0.9s-2.7,2.9-2.3,5.2c0.8,3.9,5.4,4,5.4,4c0.9,0,1.1,1.1,1.1,1.1
		l4.5,17.5c0,0,0.2,1.1-1.6,2.7c-1.9,1.6-5.5,3.5-4.4,8c1.1,4.5,4.2,20,4.2,20s-0.2,3.3,6.3,1.9c0.6-0.1,3.8-0.8,7.9-1.6l-0.8-23.6
		l9.4,21.8c0.2,0,0.5-0.1,0.7-0.1l-0.8-23.6l9.4,21.8c3.5-0.7,6.1-1.3,6.6-1.4C150.3,205.2,148.8,202.4,148.8,202.4z M85.8,94.7
		c-1.3-6.1,2.6-10.5,7.5-11.6c2.4-0.5,6.1-0.2,7.9,3l0.3,0.3l0-0.4c0.4-3.6,3.6-5.5,6-6c4.9-1.1,8.7,1.6,10.1,7.8
		c2.1,9.9-8.9,13.1-10.8,23l-0.3,1C101.4,103.1,88.1,105.7,85.8,94.7z M93.5,136.6c0,0,4.3,1.2,8.4,0.5c1.8-0.3,13.8-4.8,20.5-6.6
		c2.5-0.7,4.5-0.2,4.5-0.2l-23.4,9.3C96.7,141.8,93.5,136.6,93.5,136.6z M95.8,147.1c0,0,4.3,1.2,8.4,0.5c1.8-0.3,13.8-4.8,20.5-6.6
		c2.5-0.7,4.5-0.2,4.5-0.2l-23.4,9.3C99,152.4,95.8,147.1,95.8,147.1z M108.1,160.6c-6.8,2.3-10-3-10-3s4.3,1.2,8.4,0.5
		c1.8-0.3,13.8-4.8,20.5-6.6c2.5-0.7,4.5-0.2,4.5-0.2L108.1,160.6z"/>
</g>
<g>
	<path fill="#E30613" d="M106.5,83.4c-1.8,0.4-4.1,1.8-4.4,4.6l0,0.3l-0.2-0.3c-1.4-2.5-4.1-2.8-5.9-2.4c-3.6,0.8-6.5,4.2-5.5,9
		c1.9,8.6,11.7,6.7,15.5,13.6l0.3,0.8c0.7-7.9,10.7-11.2,8.8-19.8C114.1,84.5,110.1,82.6,106.5,83.4z"/>
</g>
</svg>
